{
    "map_name": "Kutjevo Refinery",
    "map_path": "map_files/Kutjevo",
    "map_file": "Kutjevo.dmm",
    "survivor_types": [
        "/datum/equipment_preset/survivor/doctor/kutjevo",
        "/datum/equipment_preset/survivor/chaplain/kutjevo",
        "/datum/equipment_preset/survivor/engineer/kutjevo",
        "/datum/equipment_preset/survivor/colonial_marshal/kutjevo",
        "/datum/equipment_preset/survivor/trucker/kutjevo",
        "/datum/equipment_preset/survivor/security/kutjevo"
    ],
    "defcon_triggers": [
        4250,
        2950,
        1650,
        1000,
        0.0
    ],
    "map_item_type": "/obj/item/map/kutjevo_map",
    "announce_text": "An automated distress signal has been received from Weyland-Yutani colony Kutjevo Refinery, known for botanical research, export, and raw materials processing and refinement. The ###SHIPNAME### has been dispatched to investigate.",
    "monkey_types": [
        "neaera",
        "stok"
	],
	"traits": [{ "Ground": true }],
	"nightmare": {
		"scenario": "maps/Nightmare/maps/Kutjevo/scenario.json",
        "mapgen": "maps/Nightmare/maps/Kutjevo/mapgen.json"
    }
}
